Practicals - Practical Day 5
…
Q6

#Identify routes that more than one airline flies
flights |> 
  group_by(origin, dest) |>
  summarise(numAirline = n_distinct(carrier)) |>
  filter(numAirline > 1) |>
  arrange(numAirline)

`summarise()` has grouped output by 'origin'. You can override using the
`.groups` argument.

# A tibble: 128 × 3
# Groups:   origin [3]
   origin dest  numAirline
   <chr>  <chr>      <int>
 1 EWR    AUS            2
 2 EWR    BDL            2
 3 EWR    BNA            2
 4 EWR    BWI            2
 5 EWR    CHS            2
 6 EWR    CLE            2
 7 EWR    CVG            2
 8 EWR    DCA            2
 9 EWR    DEN            2
10 EWR    DFW            2
# ℹ 118 more rows

#Average arrival delay
mean_arr_delay_tbl <- flights |> 
  group_by(carrier, origin, dest) |>
  summarise(mean_arr_delay = mean(arr_delay, na.rm = TRUE))

`summarise()` has grouped output by 'carrier', 'origin'. You can override using
the `.groups` argument.

mean_airline <-  mean_arr_delay_tbl |>
  left_join(airlines, by = "carrier")

print(mean_airline)

# A tibble: 439 × 5
# Groups:   carrier, origin [35]
   carrier origin dest  mean_arr_delay name             
   <chr>   <chr>  <chr>          <dbl> <chr>            
 1 9E      EWR    ATL            -6.25 Endeavor Air Inc.
 2 9E      EWR    CVG             1.40 Endeavor Air Inc.
 3 9E      EWR    DTW             2.54 Endeavor Air Inc.
 4 9E      EWR    MSP             1.60 Endeavor Air Inc.
 5 9E      JFK    ATL             1.40 Endeavor Air Inc.
 6 9E      JFK    AUS            -3.5  Endeavor Air Inc.
 7 9E      JFK    BNA            10.2  Endeavor Air Inc.
 8 9E      JFK    BOS             5.66 Endeavor Air Inc.
 9 9E      JFK    BUF             6.67 Endeavor Air Inc.
10 9E      JFK    BWI             8.73 Endeavor Air Inc.
# ℹ 429 more rows

#best and worse avg delay
perfromance_tbl <- mean_airline |>
  group_by(origin, dest) |>
  summarise(
    best = carrier[which.min(mean_arr_delay)],
    best_time = min(mean_arr_delay, na.rm = TRUE),
    worst = carrier[which.max(mean_arr_delay)],
    worst_time = max(mean_arr_delay, na.rm = TRUE)
  )
print(perfromance_tbl)

# A tibble: 223 × 6
# Groups:   origin, dest [223]
   origin dest  best  best_time worst worst_time
   <chr>  <chr> <chr>     <dbl> <chr>      <dbl>
 1 EWR    ALB   EV        14.4  EV         14.4 
 2 EWR    ANC   UA        -2.5  UA         -2.5 
 3 EWR    ATL   9E        -6.25 EV         19.5 
 4 EWR    AUS   WN       -11.2  UA          4.28
 5 EWR    AVL   EV         8.80 EV          8.80
 6 EWR    BDL   EV         6.78 UA         22.6 
 7 EWR    BNA   WN        -2.13 EV         17.7 
 8 EWR    BOS   EV        -4.01 B6          6.87
 9 EWR    BQN   UA        10.9  UA         10.9 
10 EWR    BTV   EV        12.2  EV         12.2 
# ℹ 213 more rows

#Dff bw times
time_diff_tbl <- perfromance_tbl |>
  summarise(
    diff_bw = best_time - worst_time
  )

print(time_diff_tbl)

# A tibble: 223 × 3
# Groups:   origin [3]
   origin dest  diff_bw
   <chr>  <chr>   <dbl>
 1 EWR    ALB       0  
 2 EWR    ANC       0  
 3 EWR    ATL     -25.8
 4 EWR    AUS     -15.5
 5 EWR    AVL       0  
 6 EWR    BDL     -15.8
 7 EWR    BNA     -19.8
 8 EWR    BOS     -10.9
 9 EWR    BQN       0  
10 EWR    BTV       0  
# ℹ 213 more rows
…
# Identifying missing entries in columns
data_Corr <- data_given |> 
  drop_na() |>
  mutate(disease_status = case_when(
    disease_status == "Healthy" ~ "healthy",
    TRUE ~disease_status
  )) |>
  mutate(gender = case_when(
    gender == "femal" ~ "female",
    TRUE ~ gender
  ))
    
data_Corr

# A tibble: 45 × 15
   id      age gender height weight blood_type disease_status cholesterol
   <chr> <int> <chr>   <dbl>  <dbl> <chr>      <chr>                <dbl>
 1 id_1     50 male     174.   69.4 O          diseased               228
 2 id_2     34 male     198.   62.3 A          healthy                223
 3 id_3     70 male     174.   55.6 O          healthy                213
 4 id_4     33 female   194.   69.5 O          healthy                198
 5 id_6     61 male     180.   60.8 AB         healthy                151
 6 id_7     69 female   170.   72.2 O          diseased               195
 7 id_9     62 male     197.   75.1 O          diseased               189
 8 id_10    56 female   165.   67.7 AB         healthy                196
 9 id_11    71 female   153    82.5 A          diseased               221
10 id_12    33 male     197.   68.7 O          healthy                156
# ℹ 35 more rows
# ℹ 7 more variables: glucose <dbl>, smoker <chr>, exercise <chr>,
#   income <int>, education <chr>, region <chr>, marital_status <chr>
…
